{
  "ReqHeader": {
    "Version": "?",
    "BusinessCode": "?",
    "TransactionId": "?",
    "Channel": "?",
    "PartnerId": "?",
    "BrandId": "?",
    "ReqTime": "?",
    "TimeFormat": {
      "TimeType": "?",
      "TimeZoneID": "?"
    },
    "AccessUser": "?",
    "AccessPassword": "?",
    "OperatorId": "?",
    "AdditionalProperty": [{
      "Code": "?",
      "Value": "?"
    }]
  },
  "AccessInfo": {
    "ObjectIdType": "?",
    "ObjectId": "?"
  },
  "AcctInfo": {
    "ExistingAcctId": "?",
    "Account": {
      "CustId": "?",
      "AcctName": "?",
      "PaymentType": "?",
      "Title": "?",
      "Name": {
        "FirstName": "?",
        "MiddleName": "?",
        "LastName": "?"
      },
      "BillCycleType": "?",
      "BillLanguage": "?",
      "Contact": {
        "ContactId": "?",
        "Priority": "?",
        "ContactType": "?",
        "Title": "?",
        "Name": {
          "FirstName": "?",
          "MiddleName": "?",
          "LastName": "?"
        },
        "OfficePhone": "?",
        "HomePhone": "?",
        "MobilePhone": "?",
        "Email": "?"
      },
      "Address": [{
        "AddressId": "?",
        "AddressType": "?",
        "Address1": "?",
        "Address2": "?",
        "Address3": "?",
        "Address4": "?",
        "Address5": "?",
        "Address6": "?",
        "Address7": "?",
        "Address8": "?",
        "Address9": "?",
        "Address10": "?",
        "Address11": "?",
        "Address12": "?",
        "PostCode": "?"
      }],
      "BillMedium":[ {
        "BillMediumId": "?",
        "BillMediumCode": "?",
        "BillContentType": "?",
        "BillMediumInfo": "?"
      }],
      "Currency": "?",
      "InitialBalance": "?",
      "CreditLimit": [{
        "LimitType": "?",
        "LimitValue": "?"
      }],
      "AcctPayMethod": "?",
      "PaymentChannel": [{
        "PaymentId": "?",
        "AcctType": "?",
        "AcctNum": "?",
        "AcctName": "?",
        "BankCode": "?",
        "BankBranchCode": "?",
        "CreditCardType": "?",
        "CVVNum": "?",
        "ExpireDate": "?"
      }],
      "AdditionalProperty": [{
        "Code": "?",
        "Value": "?"
      }]
    }
  }
}