{
  "ReqHeader": {
    "Version": "?",
    "BusinessCode": "?",
    "TransactionId": "?",
    "Channel": "?",
    "PartnerId": "?",
    "BrandId": "?",
    "ReqTime": "?",
    "TimeFormat": {
      "TimeType": "?",
      "TimeZoneID": "?"
    },
    "AccessUser": "?",
    "AccessPassword": "?",
    "OperatorId": "?",
    "AdditionalProperty": [{
      "Code": "?",
      "Value": "?"
    }]
  },
  "GroupId": "?",
  "ReasonCode": "?"
}