{
  "ReqHeader": {
    "Version": "?",
    "BusinessCode": "?",
    "TransactionId": "?",
    "Channel": "?",
    "PartnerId": "?",
    "BrandId": "?",
    "ReqTime": "?",
    "TimeFormat": {
      "TimeType": "?",
      "TimeZoneID": "?"
    },
    "AccessUser": "?",
    "AccessPassword": "?",
    "OperatorId": "?",
    "AdditionalProperty": [{
      "Code": "?",
      "Value": "?"
    }]
  },
  "EmailInfo": [{
    "BatchSeqId": "?",
    "Subject": "?",
    "Content": "?",
    "Recipient": ["email1","email2","email3"],
    "Sender": "?",
    "AttachmentPath": "?"
  }]
}